<?xml version="1.0" encoding="utf-8"?>
<!-- Generator: Adobe Illustrator 18.0.0, SVG Export Plug-In . SVG Version: 6.00 Build 0)  -->
<!DOCTYPE svg PUBLIC "-//W3C//DTD SVG 1.1//EN" "http://www.w3.org/Graphics/SVG/1.1/DTD/svg11.dtd">
<svg version="1.1" id="Layer_1" xmlns="http://www.w3.org/2000/svg" xmlns:xlink="http://www.w3.org/1999/xlink" x="0px" y="0px"
	 viewBox="0 0 256 256" enable-background="new 0 0 256 256" xml:space="preserve">
<g id="Didáctico">
	<g>
		<path fill="#5b5b5b" d="M174.2,126.4c7,0,12.6-5.6,12.6-12.6c0-7-5.6-12.6-12.6-12.6c-7,0-12.6,5.6-12.6,12.6
			C161.6,120.7,167.2,126.4,174.2,126.4z M86.4,126.4c7,0,12.6-5.6,12.6-12.6c0-7-5.6-12.6-12.6-12.6c-7,0-12.6,5.6-12.6,12.6
			C73.8,120.7,79.4,126.4,86.4,126.4z M183,168.4H75.5c-4.5,0-8.1,3.6-8.1,8.1c0,4.5,3.6,8.1,8.1,8.1H183c4.5,0,8.1-3.6,8.1-8.1
			C191,172.1,187.4,168.4,183,168.4z M241.7,90.7l1-0.6c3.2-2,4.2-6.3,2.2-9.6c-1.8-2.9-5.3-4-8.4-2.8C217.5,37.2,176.4,9,128.7,9
			C81.2,9,40.1,37,21,77.4c-2.8-0.6-5.8,0.6-7.3,3.2c-1.9,3.2-0.9,7.4,2.2,9.4c-4,12-6.2,24.8-6.2,38.1c0,65.6,53.4,119,119,119
			s119-53.4,119-119C247.8,115,245.6,102.4,241.7,90.7z M215.3,72.5c2.8,4.3,5.3,8.9,7.4,13.7l-7.4,4.6V72.5z M128.7,25.2
			c30,0,57,12.9,75.8,33.4h-65.7c-3.2,0-5.8,2.6-5.8,5.8v25.9h-5.4V64.4c0-3.2-2.6-5.8-5.8-5.8h-69C71.7,38.1,98.7,25.2,128.7,25.2z
			 M203.7,70.2v64.5h-59.1V70.2H203.7z M116.1,70.2v64.5H57.1V70.2H116.1z M45.5,67.6v24l-10.4-6.2C38,79.1,41.5,73.2,45.5,67.6z
			 M128.7,230.9c-56.7,0-102.9-46.1-102.9-102.9c0-10.2,1.5-20.1,4.3-29.5l15.3,9.2c0,0,0.1,0,0.1,0.1v32.6c0,3.2,2.6,5.8,5.8,5.8
			h70.6c3.2,0,5.8-2.6,5.8-5.8v-35.1h5.4v35.1c0,3.2,2.6,5.8,5.8,5.8h70.6c3.2,0,5.8-2.6,5.8-5.8v-33.2l12.3-7.7
			c2.6,9.1,4,18.6,4,28.5C231.6,184.8,185.4,230.9,128.7,230.9z"/>
	</g>
</g>
</svg>
